Take Home Exercise 2 – ISSS608-VAA
…
# A tibble: 1 × 3
  total_events earliest_event      latest_event       
         <int> <dttm>              <dttm>             
1       185147 2046-05-08 20:18:12 2046-07-16 17:05:59

events |>
  count(short_name, sort = TRUE)

# A tibble: 24 × 2
   short_name                 n
   <chr>                  <int>
 1 check_email            37286
 2 assign_agent_task      18856
 3 read_file              18838
 4 queue_subordinate_task 17038
 5 create_file            16000
 6 delete_file            15057
 7 check_in               15051
 8 sent                    7407
 9 received                7266
10 access_email            6442
# ℹ 14 more rows
…
events |>
  summarise(
    total_events = n(),
    earliest_event = min(datetime),
    latest_event = max(datetime)
  )

The plot
The code

# A tibble: 24 × 2
   short_name                 n
   <chr>                  <int>
 1 check_email            37286
 2 assign_agent_task      18856
 3 read_file              18838
 4 queue_subordinate_task 17038
 5 create_file            16000
 6 delete_file            15057
 7 check_in               15051
 8 sent                    7407
 9 received                7266
10 access_email            6442
# ℹ 14 more rows
…
